…
### Exercise <span class="exercise-number">13.5.1.1</span> {.unnumbered .exercise}

<div class="question">
What does it mean for a flight to have a missing `tailnum`? What do the tail numbers that don’t have a matching record in planes have in common? (Hint: one variable explains ~90% of the problems.)
</div>

<div class="answer">

American Airlines (AA) and Envoy Airlines (MQ) don't report tail numbers.

```r
flights %>%
  anti_join(planes, by = "tailnum") %>%
  count(carrier, sort = TRUE)
#> # A tibble: 10 x 2
#>   carrier     n
#>   <chr>   <int>
#> 1 MQ      25397
#> 2 AA      22558
#> 3 UA       1693
#> 4 9E       1044
#> 5 B6        830
#> 6 US        699
#> # ... with 4 more rows
```
…
```r
dep_delays_hour <- dep_delays_hour %>%
  left_join(weather_hourly, by = c("year", "month", "day", "hour"))
```

The 48 individual hours with the worst delays and the associated weather conditions were the following.

```r
dep_delays_hour %>%
  arrange(desc(dep_delay)) %>%
  print(n = 48)
#> # A tibble: 6,936 x 8
#> # Groups:   year, month, day [365]
#>     year month   day  hour dep_delay  temp wind_speed  precip
#>    <dbl> <dbl> <int> <dbl>     <dbl> <dbl>      <dbl>   <dbl>
#>  1  2013     2     9    10      269   27.4      22.2  0      
#>  2  2013     4    10    22      176.  57.3       4.99 0.147  
#>  3  2013     4    10    20      170.  58.0       9.59 0.07   
#>  4  2013     4    10    21      168.  57.0       7.29 0.00333
#>  5  2013     4    10    23      159   57.8       7.29 0.0933 
#>  6  2013     4    19    22      157   62.7      19.2  0.0133 
#>  7  2013     7    28    19      156.  74.2       7.67 0.03   
#>  8  2013     4    10    19      152.  60.0      25.7  0.14   
#>  9  2013     2     9     9      151   27.3      20.3  0      
#> 10  2013     4    19    19      150.  63.4      20.3  0      
#> 11  2013     6    28    21      149.  76.6      12.3  0      
#> 12  2013     2     9    11      148.  29        23.0  0      
#> 13  2013     7    10    22      148.  81.6       8.06 0      
#> 14  2013     9    12    17      147.  80        10.4  0      
#> 15  2013     9     2    16      144.  79.5       3.45 0.005  
#> 16  2013     7    10    19      144.  83.3      13.8  0      
#> 17  2013     9    12    20      143.  71.7      10.7  0.183  
#> 18  2013     6    28    23      142   75.4       6.90 0      
#> 19  2013     9    12    21      142.  71.4       6.52 0.0267 
#> 20  2013     6    28    20      136   77        13.0  0      
#> 21  2013     3    18    21      134.  33.3      13.0  0.0867 
#> 22  2013     8     8    22      134.  74.7      13.0  0      
#> 23  2013     3     8    10      133.  32.6      20.7  0.0733 
#> 24  2013    12     5    11      130.  53.2       4.22 0      
#> 25  2013     6    28    18      129.  79.7      13.8  0      
#> 26  2013     6    24    21      129.  79.0       3.07 0      
#> 27  2013     9    12    19      128.  78.1      17.6  0.303  
#> 28  2013     7    22    19      128.  78.8      10.4  0.00333
#> 29  2013     6    27    21      126.  75.3      18.0  0.113  
#> 30  2013     7    22    16      126.  80.3      10.4  0      
#> 31  2013     6    27    18      125.  77.7      11.5  0      
#> 32  2013     6    28    19      125   77.4      13.4  0      
#> 33  2013     7    22    20      125.  77         6.52 0      
#> 34  2013     7    10    23      124.  80.7      10.4  0      
#> 35  2013     6    30    16      124.  76.6      12.7  0.00667
#> 36  2013     5    23    17      123.  69.0      14.2  0      
#> 37  2013     6    27    20      122.  75.7      14.2  0      
#> 38  2013     4    22    22      121   46.3      13.0  0      
#> 39  2013     7    13    23      120.  74.4       3.84 0      
#> 40  2013     4    19    20      120.  62.6      21.5  0      
#> 41  2013     9    12    16      120.  79.7      11.5  0      
#> 42  2013     5    23    16      119.  68.6      16.9  0.13   
#> 43  2013     7    22    18      119.  79.8       9.97 0.00333
#> 44  2013     3     8    22      118.  40.0      17.6  0      
#> 45  2013     3     8    13      118.  34.6      18.8  0.0267 
#> 46  2013     4    19    21      117.  63.2      20.7  0      
#> 47  2013     6    24    17      116.  84.7      16.5  0      
#> 48  2013     3     8    11      116.  33.0      19.6  0.0467 
#> # ... with 6,888 more rows
```
…
The names of airlines are easier to understand than the two-letter carrier codes.
The `airlines` data frame contains the names of the airlines.


```r
carrier_transfer_tbl <- planes_carriers %>%
  # keep only planes which have flown for more than one airline
  group_by(tailnum) %>%
  filter(n() > 1) %>%
  # join with airlines to get airline names
  left_join(airlines, by = "carrier") %>%
  arrange(tailnum, carrier)

carrier_transfer_tbl
#> # A tibble: 34 x 3
#> # Groups:   tailnum [17]
#>   carrier tailnum name                    
#>   <chr>   <chr>   <chr>                   
#> 1 9E      N146PQ  Endeavor Air Inc.       
#> 2 EV      N146PQ  ExpressJet Airlines Inc.
#> 3 9E      N153PQ  Endeavor Air Inc.       
#> 4 EV      N153PQ  ExpressJet Airlines Inc.
#> 5 9E      N176PQ  Endeavor Air Inc.       
#> 6 EV      N176PQ  ExpressJet Airlines Inc.
#> # ... with 28 more rows
```
…
